module gitlab.com/onpulse/howtopulse

// +heroku goVersion go1.16
go 1.16

require (
	github.com/ReneKroon/ttlcache/v2 v2.8.0
	github.com/agiledragon/gomonkey v2.0.2+incompatible
	github.com/ethereum/go-ethereum v1.10.8
	github.com/sirupsen/logrus v1.8.1
	github.com/urfave/negroni v1.0.0
	golang.org/x/sync v0.0.0-20210220032951-036812b2e83c
)
